/* XPM */
static char * title_1_active_xpm[] = {
"2 34 4 1",
" 	c None",
".	c #6C6C6C s  inactive_shadow_1",
"+	c #000000 s inactive_hilight_1",
"@	c #3B3E3F s   inactive_color_1",
"..",
"++",
"@@",
"@@",
"@@",
"@@",
"@@",
"@@",
"@@",
"@@",
"@@",
"@@",
"@@",
"@@",
"@@",
"@@",
"@@",
"@@",
"@@",
"@@",
"@@",
"@@",
"@@",
"@@",
"@@",
"@@",
"@@",
"@@",
"@@",
"@@",
"@@",
"@@",
"@@",
"@@"};
