#define bullet_width 9
#define bullet_height 15
static unsigned char bullet_bits[] = {
   0x03, 0x00, 0x07, 0x00, 0x0f, 0x00, 0x1f, 0x00, 0x3f, 0x00, 0x7f, 0x00,
   0xff, 0x00, 0xff, 0x01, 0xff, 0x00, 0x7f, 0x00, 0x3f, 0x00, 0x1f, 0x00,
   0x0f, 0x00, 0x07, 0x00, 0x03, 0x00 };
